<?xml version="1.0" encoding="utf-8"?>
<!-- Generator: Adobe Illustrator 25.0.0, SVG Export Plug-In . SVG Version: 6.00 Build 0)  -->
<svg version="1.1" id="Ebene_1" focusable="false" xmlns="http://www.w3.org/2000/svg" xmlns:xlink="http://www.w3.org/1999/xlink"
	 x="0px" y="0px" viewBox="0 0 512 512" style="enable-background:new 0 0 512 512;" xml:space="preserve">
<style type="text/css">
	.st0{fill:#FFFFFF;}
</style>
<path class="st0" d="M464,64H48C21.5,64,0,85.5,0,112v288c0,26.5,21.5,48,48,48h416c26.5,0,48-21.5,48-48V112
	C512,85.5,490.5,64,464,64z M48,96h416c8.8,0,16,7.2,16,16v41.4c-21.9,18.5-53.2,44-150.6,121.3c-16.9,13.4-50.2,45.7-73.4,45.3
	c-23.2,0.4-56.6-31.9-73.4-45.3C85.2,197.4,53.9,171.9,32,153.4V112C32,103.2,39.2,96,48,96z M464,416H48c-8.8,0-16-7.2-16-16V195
	c22.8,18.7,58.8,47.6,130.7,104.7c20.5,16.4,56.7,52.5,93.3,52.3c36.4,0.3,72.3-35.5,93.3-52.3c71.9-57.1,107.9-86,130.7-104.7v205
	C480,408.8,472.8,416,464,416z"/>
</svg>
